[
  {
    "id": 3,
    "name": "Iron Guardian",
    "locations": [
      48,
      49,
      54
    ]
  },
  {
    "id": 4,
    "name": "Rainbow Spirit",
    "locations": [
      48,
      52,
      43
    ]
  },
  {
    "id": 5,
    "name": "Divine Mimic",
    "locations": [
      48,
      51,
      54
    ]
  },
  {
    "id": 6,
    "name": "Spirit of Light",
    "locations": [
      48,
      52,
      54,
      39
    ]
  },
  {
    "id": 7,
    "name": "Dark Guardian",
    "locations": [
      48,
      49,
      54,
      55
    ]
  },
  {
    "id": 8,
    "name": "Jelling",
    "locations": [
      50,
      31
    ]
  },
  {
    "id": 9,
    "name": "Desert Jelling",
    "locations": [
      50,
      35
    ]
  },
  {
    "id": 10,
    "name": "Mountain Jelling",
    "locations": [
      50,
      20
    ]
  },
  {
    "id": 11,
    "name": "Lava Jelling",
    "locations": [
      50
    ]
  },
  {
    "id": 12,
    "name": "Toxic Jelling",
    "locations": [
      50,
      34
    ]
  },
  {
    "id": 13,
    "name": "Hot Spring Jelling",
    "locations": [
      50,
      45
    ]
  },
  {
    "id": 14,
    "name": "Jellking",
    "locations": [
      50,
      31
    ]
  },
  {
    "id": 15,
    "name": "Jellqueen",
    "locations": [
      50
    ]
  },
  {
    "id": 16,
    "name": "Crabby Knight",
    "locations": [
      51,
      53
    ]
  },
  {
    "id": 17,
    "name": "Crabby Paladin",
    "locations": [
      51
    ]
  },
  {
    "id": 18,
    "name": "Wind Wisp",
    "locations": [
      52,
      56,
      45
    ]
  },
  {
    "id": 19,
    "name": "Dark Wisp",
    "locations": [
      52,
      56,
      61,
      62,
      43
    ]
  },
  {
    "id": 20,
    "name": "Aqua Wisp",
    "locations": [
      52,
      56,
      44
    ]
  },
  {
    "id": 21,
    "name": "Flame Wisp",
    "locations": [
      52,
      56,
      46
    ]
  },
  {
    "id": 24,
    "name": "Lightning Wraith",
    "locations": [
      48,
      39
    ]
  },
  {
    "id": 25,
    "name": "Rainbow Wraith",
    "locations": [
      48,
      43
    ]
  },
  {
    "id": 26,
    "name": "Divine Guardian",
    "locations": [
      53,
      54
    ]
  },
  {
    "id": 27,
    "name": "Stone Giant",
    "locations": [
      54,
      43
    ]
  },
  {
    "id": 28,
    "name": "Heaven Bird",
    "locations": [
      54,
      44
    ]
  },
  {
    "id": 29,
    "name": "Heavy Guardian",
    "locations": [
      55
    ]
  },
  {
    "id": 30,
    "name": "Blazine",
    "locations": [
      56,
      46
    ]
  },
  {
    "id": 31,
    "name": "Gustine",
    "locations": [
      56,
      45
    ]
  },
  {
    "id": 32,
    "name": "Aquazine",
    "locations": [
      56,
      44
    ]
  },
  {
    "id": 33,
    "name": "Darkzine",
    "locations": [
      56,
      43
    ]
  },
  {
    "id": 34,
    "name": "Gustilion",
    "locations": [
      57
    ]
  },
  {
    "id": 35,
    "name": "Aqualion",
    "locations": [
      57
    ]
  },
  {
    "id": 36,
    "name": "Blazilion",
    "locations": [
      57
    ]
  },
  {
    "id": 37,
    "name": "Crystal Dragon",
    "locations": [
      59
    ]
  },
  {
    "id": 38,
    "name": "Gargoyle",
    "locations": [
      60,
      61,
      65
    ]
  },
  {
    "id": 39,
    "name": "Shadow Protector",
    "locations": [
      60
    ]
  },
  {
    "id": 40,
    "name": "Spirit of Darkness",
    "locations": [
      60,
      86
    ]
  },
  {
    "id": 41,
    "name": "Calamitus",
    "locations": [
      60,
      35
    ]
  },
  {
    "id": 42,
    "name": "Shadow Gargoyle",
    "locations": [
      61,
      65
    ]
  },
  {
    "id": 43,
    "name": "Wicked Box",
    "locations": [
      62,
      78
    ]
  },
  {
    "id": 44,
    "name": "Bloodmon",
    "locations": [
      62
    ]
  },
  {
    "id": 45,
    "name": "Darkmon",
    "locations": [
      62,
      87
    ]
  },
  {
    "id": 46,
    "name": "Hell Gigante",
    "locations": [
      63,
      46
    ]
  },
  {
    "id": 47,
    "name": "Shadow Baby Dragon",
    "locations": [
      64,
      87
    ]
  },
  {
    "id": 48,
    "name": "Shadow Wolf",
    "locations": [
      64,
      87
    ]
  },
  {
    "id": 49,
    "name": "Boss Shadow Wolf",
    "locations": [
      64,
      87
    ]
  },
  {
    "id": 50,
    "name": "Shadow Shark",
    "locations": [
      64,
      87
    ]
  },
  {
    "id": 51,
    "name": "Shadow Bigbeak",
    "locations": [
      64,
      87
    ]
  },
  {
    "id": 52,
    "name": "Violent Violet",
    "locations": [
      66,
      39
    ]
  },
  {
    "id": 53,
    "name": "Dark Spider",
    "locations": [
      66,
      35
    ]
  },
  {
    "id": 54,
    "name": "Moth Queen",
    "locations": [
      66,
      35
    ]
  },
  {
    "id": 55,
    "name": "Giant Crab",
    "locations": [
      66,
      44
    ]
  },
  {
    "id": 56,
    "name": "Medusa",
    "locations": [
      66,
      74
    ]
  },
  {
    "id": 57,
    "name": "Deadly Medusa",
    "locations": [
      66,
      74
    ]
  },
  {
    "id": 58,
    "name": "Baby Shadow Dragon",
    "locations": [
      67
    ]
  },
  {
    "id": 59,
    "name": "Shadow Dragon",
    "locations": [
      67,
      87
    ]
  },
  {
    "id": 60,
    "name": "Demon Master",
    "locations": [
      69
    ]
  },
  {
    "id": 61,
    "name": "Banana King",
    "locations": [
      70,
      40
    ]
  },
  {
    "id": 62,
    "name": "Bowtaur",
    "locations": [
      70,
      45,
      43,
      46
    ]
  },
  {
    "id": 63,
    "name": "Berserk Giant",
    "locations": [
      70,
      75
    ]
  },
  {
    "id": 64,
    "name": "Marinetaur",
    "locations": [
      70,
      44
    ]
  },
  {
    "id": 65,
    "name": "Grand Marinetaur",
    "locations": [
      70
    ]
  },
  {
    "id": 66,
    "name": "Leafysaurus",
    "locations": [
      71,
      46
    ]
  },
  {
    "id": 67,
    "name": "Antiquesaurus",
    "locations": [
      71
    ]
  },
  {
    "id": 68,
    "name": "Dark Giant",
    "locations": [
      72,
      75
    ]
  },
  {
    "id": 69,
    "name": "Strongtaur",
    "locations": [
      72,
      45
    ]
  },
  {
    "id": 70,
    "name": "Sagely Carroty",
    "locations": [
      73,
      43
    ]
  },
  {
    "id": 71,
    "name": "Sagely Carrotella",
    "locations": [
      73,
      43
    ]
  },
  {
    "id": 72,
    "name": "Greywing Pterosaur",
    "locations": [
      73,
      46
    ]
  },
  {
    "id": 73,
    "name": "Desert Tyrant",
    "locations": [
      73,
      77
    ]
  },
  {
    "id": 74,
    "name": "King Cobra",
    "locations": [
      74,
      35
    ]
  },
  {
    "id": 75,
    "name": "Mummy",
    "locations": [
      74,
      35
    ]
  },
  {
    "id": 76,
    "name": "Mimic",
    "locations": [
      74,
      78
    ]
  },
  {
    "id": 77,
    "name": "Giant Mimic",
    "locations": [
      74
    ]
  },
  {
    "id": 78,
    "name": "Killertaur",
    "locations": [
      76
    ]
  },
  {
    "id": 79,
    "name": "Ancient Dragon",
    "locations": [
      45
    ]
  },
  {
    "id": 80,
    "name": "Tribal Tyke",
    "locations": [
      45
    ]
  },
  {
    "id": 81,
    "name": "Whisker Worm",
    "locations": [
      43
    ]
  },
  {
    "id": 82,
    "name": "Godbee",
    "locations": [
      43
    ]
  },
  {
    "id": 83,
    "name": "Angelic Bunny",
    "locations": [
      43
    ]
  },
  {
    "id": 84,
    "name": "Elder Horn",
    "locations": [
      43
    ]
  },
  {
    "id": 85,
    "name": "Gigataur",
    "locations": [
      46
    ]
  },
  {
    "id": 86,
    "name": "Penguin Groom",
    "locations": [
      44
    ]
  },
  {
    "id": 87,
    "name": "Penguin Bride",
    "locations": [
      44
    ]
  },
  {
    "id": 88,
    "name": "Sea Horse",
    "locations": [
      44
    ]
  },
  {
    "id": 89,
    "name": "Island Crab",
    "locations": [
      44,
      43
    ]
  },
  {
    "id": 91,
    "name": "Vampire Bat",
    "locations": [
      35
    ]
  },
  {
    "id": 92,
    "name": "Batmon",
    "locations": [
      35
    ]
  },
  {
    "id": 93,
    "name": "Chiromon",
    "locations": [
      35
    ]
  },
  {
    "id": 94,
    "name": "Metal Jelling",
    "locations": [
      35
    ]
  },
  {
    "id": 95,
    "name": "Gilded Golem",
    "locations": [
      35
    ]
  },
  {
    "id": 96,
    "name": "Killer Cacto",
    "locations": [
      35
    ]
  },
  {
    "id": 97,
    "name": "Dragon Hatchling",
    "locations": [
      35
    ]
  },
  {
    "id": 98,
    "name": "Big Spook",
    "locations": [
      35
    ]
  },
  {
    "id": 99,
    "name": "Golden Dragon",
    "locations": [
      35
    ]
  },
  {
    "id": 100,
    "name": "Gigante",
    "locations": [
      35
    ]
  },
  {
    "id": 101,
    "name": "Flame Moth",
    "locations": [
      35
    ]
  },
  {
    "id": 102,
    "name": "Angry Cacto",
    "locations": [
      32
    ]
  },
  {
    "id": 103,
    "name": "Killer Bee",
    "locations": [
      32
    ]
  },
  {
    "id": 104,
    "name": "Burly Gorilla",
    "locations": [
      32
    ]
  },
  {
    "id": 105,
    "name": "Pterodactyl",
    "locations": [
      32
    ]
  },
  {
    "id": 106,
    "name": "Thunder Bird",
    "locations": [
      32
    ]
  },
  {
    "id": 107,
    "name": "Spearhead Piranha",
    "locations": [
      32
    ]
  },
  {
    "id": 108,
    "name": "Sandshark",
    "locations": [
      32
    ]
  },
  {
    "id": 109,
    "name": "Sand Golem",
    "locations": [
      32
    ]
  },
  {
    "id": 110,
    "name": "Sand Spider",
    "locations": [
      32
    ]
  },
  {
    "id": 111,
    "name": "Armourdillo",
    "locations": [
      32
    ]
  },
  {
    "id": 112,
    "name": "Sand Runner",
    "locations": [
      32
    ]
  },
  {
    "id": 113,
    "name": "Desert Spook",
    "locations": [
      32,
      77
    ]
  },
  {
    "id": 114,
    "name": "Outlaw",
    "locations": [
      32
    ]
  },
  {
    "id": 115,
    "name": "Outlaw Leader",
    "locations": [
      32
    ]
  },
  {
    "id": 116,
    "name": "Spirit of Wind",
    "locations": [
      32,
      29
    ]
  },
  {
    "id": 117,
    "name": "Gale Wraith",
    "locations": [
      32
    ]
  },
  {
    "id": 119,
    "name": "Crimson Frog",
    "locations": [
      34
    ]
  },
  {
    "id": 120,
    "name": "Arachne",
    "locations": [
      34
    ]
  },
  {
    "id": 121,
    "name": "Ironstone Golem",
    "locations": [
      34
    ]
  },
  {
    "id": 122,
    "name": "Saw Shark",
    "locations": [
      34
    ]
  },
  {
    "id": 123,
    "name": "Nightmare Bat",
    "locations": [
      79
    ]
  },
  {
    "id": 124,
    "name": "Behemoth",
    "locations": [
      79
    ]
  },
  {
    "id": 125,
    "name": "Gem Beetle Baller",
    "locations": [
      33
    ]
  },
  {
    "id": 126,
    "name": "Hootlum",
    "locations": [
      33
    ]
  },
  {
    "id": 127,
    "name": "Skeleton",
    "locations": [
      33,
      80,
      32
    ]
  },
  {
    "id": 128,
    "name": "Pandamonium",
    "locations": [
      41
    ]
  },
  {
    "id": 129,
    "name": "Mantis",
    "locations": [
      41
    ]
  },
  {
    "id": 130,
    "name": "Flower Mantis",
    "locations": [
      41
    ]
  },
  {
    "id": 131,
    "name": "Chimera",
    "locations": [
      41
    ]
  },
  {
    "id": 132,
    "name": "Zombie Pirate",
    "locations": [
      29
    ]
  },
  {
    "id": 133,
    "name": "Angry Zombie",
    "locations": [
      29
    ]
  },
  {
    "id": 134,
    "name": "Turtortle",
    "locations": [
      29
    ]
  },
  {
    "id": 135,
    "name": "Chop-chop Piranha",
    "locations": [
      29
    ]
  },
  {
    "id": 136,
    "name": "Octoshell",
    "locations": [
      29
    ]
  },
  {
    "id": 137,
    "name": "Island Shark",
    "locations": [
      29
    ]
  },
  {
    "id": 138,
    "name": "Punching Palm",
    "locations": [
      29
    ]
  },
  {
    "id": 139,
    "name": "Toothy Piranha",
    "locations": [
      29
    ]
  },
  {
    "id": 140,
    "name": "Electro Jellyfish",
    "locations": [
      29
    ]
  },
  {
    "id": 141,
    "name": "Spirit of Water",
    "locations": [
      29
    ]
  },
  {
    "id": 142,
    "name": "Turtanic",
    "locations": [
      29
    ]
  },
  {
    "id": 143,
    "name": "Croc",
    "locations": [
      29
    ]
  },
  {
    "id": 145,
    "name": "Fairy Dragon",
    "locations": [
      16,
      82
    ]
  },
  {
    "id": 146,
    "name": "Ancient Napdragon",
    "locations": [
      16
    ]
  },
  {
    "id": 147,
    "name": "Lord of the Cursed",
    "locations": [
      32
    ]
  },
  {
    "id": 148,
    "name": "Typhoon Bird",
    "locations": [
      29
    ]
  },
  {
    "id": 149,
    "name": "Pumpking",
    "locations": [
      23
    ]
  },
  {
    "id": 150,
    "name": "Pumpcactin",
    "locations": [
      23
    ]
  },
  {
    "id": 151,
    "name": "Pumpkin Ghoul",
    "locations": [
      23
    ]
  },
  {
    "id": 152,
    "name": "Fortoise",
    "locations": [
      19
    ]
  },
  {
    "id": 153,
    "name": "Spirit of Fire",
    "locations": [
      19
    ]
  },
  {
    "id": 154,
    "name": "Mustardino",
    "locations": [
      26
    ]
  },
  {
    "id": 155,
    "name": "Rowdy Zombie",
    "locations": [
      30
    ]
  },
  {
    "id": 156,
    "name": "Undead Deckhand",
    "locations": [
      30
    ]
  },
  {
    "id": 157,
    "name": "Undead Captain",
    "locations": [
      30
    ]
  },
  {
    "id": 158,
    "name": "Veteran Bandit",
    "locations": [
      17
    ]
  },
  {
    "id": 159,
    "name": "Bandit Master",
    "locations": [
      17
    ]
  },
  {
    "id": 160,
    "name": "Legendary Bandit",
    "locations": [
      17
    ]
  },
  {
    "id": 161,
    "name": "Gift-Wrapped Mimic",
    "locations": [
      21
    ]
  },
  {
    "id": 162,
    "name": "Spinning Horn",
    "locations": [
      21
    ]
  },
  {
    "id": 163,
    "name": "Enchanted Golem",
    "locations": [
      34
    ]
  },
  {
    "id": 164,
    "name": "Skullblob",
    "locations": [
      34,
      17
    ]
  },
  {
    "id": 165,
    "name": "Cloudy Spirit",
    "locations": [
      41
    ]
  },
  {
    "id": 166,
    "name": "Cottonne",
    "locations": [
      41
    ]
  },
  {
    "id": 167,
    "name": "Spiked Jellyfish",
    "locations": [
      31
    ]
  },
  {
    "id": 168,
    "name": "Great Serpent",
    "locations": [
      31
    ]
  },
  {
    "id": 169,
    "name": "Blizzard Bird",
    "locations": [
      29
    ]
  },
  {
    "id": 170,
    "name": "Hoodwink",
    "locations": [
      22
    ]
  },
  {
    "id": 171,
    "name": "Gingery",
    "locations": [
      22
    ]
  },
  {
    "id": 172,
    "name": "Plains Bear",
    "locations": [
      22
    ]
  },
  {
    "id": 173,
    "name": "Applejack Ape",
    "locations": [
      22
    ]
  },
  {
    "id": 174,
    "name": "Mushface",
    "locations": [
      22
    ]
  },
  {
    "id": 175,
    "name": "Timber Tinder",
    "locations": [
      22
    ]
  },
  {
    "id": 176,
    "name": "Spirit of Earth",
    "locations": [
      22
    ]
  },
  {
    "id": 177,
    "name": "Earth Wraith",
    "locations": [
      22
    ]
  },
  {
    "id": 178,
    "name": "Forest Panther",
    "locations": [
      22
    ]
  },
  {
    "id": 179,
    "name": "Burly Bramble",
    "locations": [
      23
    ]
  },
  {
    "id": 180,
    "name": "Sharp Weedling",
    "locations": [
      23
    ]
  },
  {
    "id": 181,
    "name": "Killer Bear",
    "locations": [
      23
    ]
  },
  {
    "id": 182,
    "name": "Forest Wraith",
    "locations": [
      23
    ]
  },
  {
    "id": 183,
    "name": "Eyes of Darkness",
    "locations": [
      23
    ]
  },
  {
    "id": 184,
    "name": "Lava Weedling",
    "locations": [
      19
    ]
  },
  {
    "id": 185,
    "name": "Mushflame",
    "locations": [
      19
    ]
  },
  {
    "id": 186,
    "name": "Lava Caterpillo",
    "locations": [
      19,
      18
    ]
  },
  {
    "id": 187,
    "name": "Lava Golem",
    "locations": [
      19
    ]
  },
  {
    "id": 188,
    "name": "Blaze Wraith",
    "locations": [
      19
    ]
  },
  {
    "id": 189,
    "name": "Mothoon",
    "locations": [
      39
    ]
  },
  {
    "id": 190,
    "name": "Terror Weedling",
    "locations": [
      39
    ]
  },
  {
    "id": 191,
    "name": "Trihorn",
    "locations": [
      39
    ]
  },
  {
    "id": 192,
    "name": "Brutal Blossom",
    "locations": [
      39
    ]
  },
  {
    "id": 193,
    "name": "Bunny Killer",
    "locations": [
      40
    ]
  },
  {
    "id": 194,
    "name": "Ferociousaurus",
    "locations": [
      40
    ]
  },
  {
    "id": 195,
    "name": "Dinky Dragon",
    "locations": [
      40
    ]
  },
  {
    "id": 196,
    "name": "Silver Dragon",
    "locations": [
      40
    ]
  },
  {
    "id": 197,
    "name": "Razorbeak",
    "locations": [
      18
    ]
  },
  {
    "id": 198,
    "name": "Buffalo",
    "locations": [
      18
    ]
  },
  {
    "id": 199,
    "name": "Black Panther",
    "locations": [
      18
    ]
  },
  {
    "id": 200,
    "name": "Rock Serpent",
    "locations": [
      18
    ]
  },
  {
    "id": 201,
    "name": "Cashmeer",
    "locations": [
      18
    ]
  },
  {
    "id": 202,
    "name": "Fanged Ape",
    "locations": [
      18
    ]
  },
  {
    "id": 203,
    "name": "Iced Jellyfish",
    "locations": [
      21
    ]
  },
  {
    "id": 204,
    "name": "Snowflake Bunny",
    "locations": [
      21
    ]
  },
  {
    "id": 205,
    "name": "Snow Runner",
    "locations": [
      21
    ]
  },
  {
    "id": 206,
    "name": "Snow Leopard",
    "locations": [
      21
    ]
  },
  {
    "id": 207,
    "name": "Glaciowl",
    "locations": [
      21
    ]
  },
  {
    "id": 208,
    "name": "Silverfang",
    "locations": [
      21
    ]
  },
  {
    "id": 209,
    "name": "Silverwing",
    "locations": [
      21
    ]
  },
  {
    "id": 210,
    "name": "Ice Spook",
    "locations": [
      21
    ]
  },
  {
    "id": 211,
    "name": "Cave Bat",
    "locations": [
      20
    ]
  },
  {
    "id": 212,
    "name": "Licky Gecko",
    "locations": [
      20
    ]
  },
  {
    "id": 213,
    "name": "Feely Catterpillo",
    "locations": [
      20
    ]
  },
  {
    "id": 214,
    "name": "Iron Golem",
    "locations": [
      20
    ]
  },
  {
    "id": 215,
    "name": "Pitchfork Piranha",
    "locations": [
      20
    ]
  },
  {
    "id": 216,
    "name": "Armoured Croc",
    "locations": [
      20
    ]
  },
  {
    "id": 217,
    "name": "Cacto",
    "locations": [
      36
    ]
  },
  {
    "id": 218,
    "name": "Flowering Cacto",
    "locations": [
      36
    ]
  },
  {
    "id": 219,
    "name": "Lovely Jelling",
    "locations": [
      36
    ]
  },
  {
    "id": 220,
    "name": "Shadowsaurus",
    "locations": [
      87
    ]
  },
  {
    "id": 221,
    "name": "Jackal",
    "locations": [
      28
    ]
  },
  {
    "id": 222,
    "name": "Killer Horn",
    "locations": [
      28
    ]
  },
  {
    "id": 223,
    "name": "Dark Bat",
    "locations": [
      30,
      88
    ]
  },
  {
    "id": 224,
    "name": "Crocturtle",
    "locations": [
      30
    ]
  },
  {
    "id": 225,
    "name": "Cave Catterpillo",
    "locations": [
      30
    ]
  },
  {
    "id": 226,
    "name": "Black Octoshell",
    "locations": [
      30
    ]
  },
  {
    "id": 227,
    "name": "Octoshell Knight",
    "locations": [
      30
    ]
  },
  {
    "id": 228,
    "name": "Rocksalt Golem",
    "locations": [
      30
    ]
  },
  {
    "id": 229,
    "name": "Pickaxed Golem",
    "locations": [
      88
    ]
  },
  {
    "id": 230,
    "name": "White Woolie",
    "locations": [
      16
    ]
  },
  {
    "id": 231,
    "name": "Worker Bee",
    "locations": [
      16
    ]
  },
  {
    "id": 232,
    "name": "Sandzard",
    "locations": [
      16
    ]
  },
  {
    "id": 233,
    "name": "Carroty",
    "locations": [
      16
    ]
  },
  {
    "id": 234,
    "name": "Napdragon",
    "locations": [
      16
    ]
  },
  {
    "id": 235,
    "name": "Bandit",
    "locations": [
      16
    ]
  },
  {
    "id": 236,
    "name": "Bandit Leader",
    "locations": [
      16
    ]
  },
  {
    "id": 237,
    "name": "Road Runner",
    "locations": [
      16
    ]
  },
  {
    "id": 238,
    "name": "Red Wolf",
    "locations": [
      16
    ]
  },
  {
    "id": 239,
    "name": "Carrotella",
    "locations": [
      16
    ]
  },
  {
    "id": 240,
    "name": "Spook",
    "locations": [
      16
    ]
  },
  {
    "id": 241,
    "name": "Coyote",
    "locations": [
      16
    ]
  },
  {
    "id": 242,
    "name": "Dragon Mustard",
    "locations": [
      16
    ]
  },
  {
    "id": 243,
    "name": "Field Frog",
    "locations": [
      26
    ]
  },
  {
    "id": 244,
    "name": "Splash Frog",
    "locations": [
      26
    ]
  },
  {
    "id": 245,
    "name": "Bull",
    "locations": [
      26
    ]
  },
  {
    "id": 246,
    "name": "Radishy",
    "locations": [
      26
    ]
  },
  {
    "id": 247,
    "name": "Grass Serpent",
    "locations": [
      26
    ]
  },
  {
    "id": 248,
    "name": "Black Woolie",
    "locations": [
      26
    ]
  },
  {
    "id": 249,
    "name": "Tortortoise",
    "locations": [
      26
    ]
  },
  {
    "id": 250,
    "name": "Radishella",
    "locations": [
      26
    ]
  },
  {
    "id": 251,
    "name": "Bigbeak",
    "locations": [
      26
    ]
  },
  {
    "id": 252,
    "name": "Beetle Baller",
    "locations": [
      26
    ]
  },
  {
    "id": 253,
    "name": "Taurus",
    "locations": [
      26
    ]
  },
  {
    "id": 254,
    "name": "Killer Bunny",
    "locations": [
      26
    ]
  },
  {
    "id": 255,
    "name": "Wicked Jaws",
    "locations": [
      31
    ]
  },
  {
    "id": 256,
    "name": "Catterpillo",
    "locations": [
      16
    ]
  },
  {
    "id": 257,
    "name": "Cobalt Frog",
    "locations": [
      17
    ]
  },
  {
    "id": 258,
    "name": "Weedling",
    "locations": [
      17
    ]
  },
  {
    "id": 259,
    "name": "Green Gator",
    "locations": [
      29
    ]
  },
  {
    "id": 260,
    "name": "Bitey Shark",
    "locations": [
      29
    ]
  },
  {
    "id": 261,
    "name": "Sea Wraith",
    "locations": [
      31
    ]
  },
  {
    "id": 262,
    "name": "Gemzard",
    "locations": [
      28
    ]
  },
  {
    "id": 263,
    "name": "Lord of the Dead",
    "locations": [
      32
    ]
  },
  {
    "id": 264,
    "name": "Starry Catterpillo",
    "locations": [
      36
    ]
  },
  {
    "id": 265,
    "name": "Sea Mare",
    "locations": [
      44
    ]
  }
]