[
  "cerulean",
  "cosmo",
  "cyborg",
  "darkly",
  "flatly",
  "journal",
  "lumen",
  "paper",
  "readable",
  "sandstone",
  "simplex",
  "slate",
  "spacelab",
  "superhero",
  "united",
  "yeti"
]